{"_id":{"$oid":"592dad9733774d9368da2545"},"equipId":"1","equipName":"空調設備"}
{"_id":{"$oid":"592dad9f33774d9368da2546"},"equipId":"2","equipName":"送風機"}
{"_id":{"$oid":"592dadae33774d9368da2547"},"equipId":"3","equipName":"空氣偵測器"}
{"_id":{"$oid":"592dadbe33774d9368da2548"},"equipId":"4","equipName":"紅外線陣列器"}
{"_id":{"$oid":"592dadc933774d9368da2549"},"equipId":"5","equipName":"電表"}
